Practical Data Management w/ dataspice
…
<br>

***

##### Citation:
_National Ecological Observatory Network. 2018. Data Products: DP1.10098.001.  Provisional data downloaded from http://data.neonscience.org on 2018-05-04. Battelle, Boulder, CO, USA_

---

## vst_perplotperyear.csv

Plot level data

```
## # A tibble: 165 x 14
##    date       siteID plotID plotType nlcdClass decimalLatitude
##    <date>     <chr>  <chr>  <chr>    <chr>               <dbl>
##  1 2015-06-06 BART   BART_… tower    deciduou…            44.1
##  2 2015-07-16 BART   BART_… tower    deciduou…            44.1
##  3 2015-07-21 BART   BART_… tower    deciduou…            44.1
##  4 2015-07-22 BART   BART_… tower    mixedFor…            44.1
##  5 2015-07-22 BART   BART_… tower    deciduou…            44.1
##  6 2015-07-22 BART   BART_… tower    deciduou…            44.1
##  7 2015-07-22 BART   BART_… tower    deciduou…            44.1
##  8 2015-07-23 BART   BART_… tower    mixedFor…            44.1
##  9 2015-07-23 BART   BART_… tower    deciduou…            44.1
## 10 2015-07-28 BART   BART_… tower    mixedFor…            44.1
## # … with 155 more rows, and 8 more variables: decimalLongitude <dbl>,
## #   treesPresent <lgl>, shrubsPresent <lgl>, lianasPresent <lgl>,
## #   totalSampledAreaTrees <dbl>, totalSampledAreaShrubSapling <dbl>,
## #   totalSampledAreaLiana <dbl>, recordedBy <chr>
```

---

## vst_mappingandtagging.csv

Individual level data

```
## # A tibble: 1,799 x 7
##    date       siteID plotID  individualID taxonID scientificName recordedBy
##    <date>     <chr>  <chr>   <chr>        <chr>   <chr>          <chr>     
##  1 2015-08-04 BART   BART_0… NEON.PLA.D0… TSCA    Tsuga canaden… 6HzkzFDdL…
##  2 2015-08-04 BART   BART_0… NEON.PLA.D0… TSCA    Tsuga canaden… 6HzkzFDdL…
##  3 2015-07-22 BART   BART_0… NEON.PLA.D0… FAGR    Fagus grandif… zODC+zTh3…
##  4 2015-08-26 BART   BART_0… NEON.PLA.D0… FAGR    Fagus grandif… zODC+zTh3…
##  5 2015-08-04 BART   BART_0… NEON.PLA.D0… PICEA   Picea sp.      6HzkzFDdL…
##  6 2015-08-04 BART   BART_0… NEON.PLA.D0… TSCA    Tsuga canaden… 0uwWHUCkG…
##  7 2015-07-22 BART   BART_0… NEON.PLA.D0… FAGR    Fagus grandif… zODC+zTh3…
##  8 2015-08-12 BART   BART_0… NEON.PLA.D0… FAGR    Fagus grandif… jRr6tAEXv…
##  9 2015-07-22 BART   BART_0… NEON.PLA.D0… FAGR    Fagus grandif… jRr6tAEXv…
## 10 2015-08-25 BART   BART_0… NEON.PLA.D0… FAGR    Fagus grandif… 0uwWHUCkG…
## # … with 1,789 more rows
```
…
